## Interface: 90002
## Title: Development Tools (v1.12)
## Notes: Debgugging, Exploration, and Diagnostic Tools (v1.12)
## Author: Daniel Stephens/Iriel (iriel@vigilance-committee.org)
## SavedVariables: DevTools_Options, DevTools_Events
DevTools.lua
DevToolsFormat.lua
DevToolsVisFrame.lua
DevToolsDump.lua
DevToolsChatEvent.lua
DevToolsFrameStack.lua
DevToolsTreeList.lua
DevToolsEventTraceStateList.lua
DevToolsEventTraceClosure.lua
DevToolsEventTrace.lua
DevToolsEventTraceFormats.lua
DevToolsEventTraceVisual.lua
DevToolsEventTraceOptions.lua

